%YAML 1.1
%TAG !u! tag:unity3d.com,2011:
--- !u!1045 &1
EditorBuildSettings:
  m_ObjectHideFlags: 0
  serializedVersion: 2
  m_Scenes:
  - enabled: 1
    path: Assets/Scenes/Level 1.unity
    guid: 99c9720ab356a0642a771bea13969a05
  - enabled: 1
    path: Assets/Scenes/Level 2.unity
    guid: 8f9156eb5504e474fa2ec3242094efca
  - enabled: 1
    path: Assets/Scenes/Level 3.unity
    guid: ae23038aa5d215240a2c4b7667ba2d48
  - enabled: 1
    path: Assets/Scenes/Level 4.unity
    guid: bbce51c9b349a474889c3069e4a90e43
  - enabled: 1
    path: Assets/Scenes/Level 5.unity
    guid: c6728475096df14478ea45bf4c564a6c
  - enabled: 1
    path: Assets/Scenes/Level 6.unity
    guid: 02521c5ca5a04cd43bd80661b8860809
  - enabled: 1
    path: Assets/Scenes/Level 7.unity
    guid: 4978456e8ebe3a6479e556377bf8636f
  - enabled: 1
    path: Assets/Scenes/Level 8.unity
    guid: 698142913c48d664a9a991d4a38513c5
  m_configObjects:
    com.unity.adaptiveperformance.loader_settings: {fileID: 11400000, guid: 4fc1cd4e4f5693f41aad56c46113768a,
      type: 2}
    com.unity.adaptiveperformance.samsung.android.provider_settings: {fileID: 11400000,
      guid: 1164ecbae4ae585479cf8de1f1efecb1, type: 2}
    com.unity.adaptiveperformance.simulator.provider_settings: {fileID: 11400000,
      guid: 6e498573697dbcf42a3177068e87e2af, type: 2}
